#HITDATA　←このファイルがゲームのデータファイルであることのタグ
#VERSION　←フォーマットが合わなくなったときはここの数値ではじくようにします。
1
#POINT　　←支点の座標を書いています　中心500,500で0-1000の範囲です (横,縦) 0が左上
500,250
350,400
500,450
650,400
500,850
400,700
150,700
600,700
850,700
#END　　　←ENDまでを有効なデータとします。間に不要なデータは入れないでください。　
#LINE　　 ←線の情報です。上記#POINTの何番目のデータであるかを記載しています。(始点,終点,1だと一方通行)
2,3,1
3,0,1
0,1,1
1,2,1
2,4,0
4,7,0
7,8,0
8,4,0
4,5,0
6,4,0
6,5,0
#END     ←ENDまでを有効なデータとします。間に不要なデータは入れないでください。
#ANSER   ←答えの設定です　　支点を通過する順番を記載しています。#ENDは不要です。
2,3,0,1,2,4,7,8,4,5,6,4,
#QUEST　 ←お題設定です　1にすると答えに設定されたタイミングでしか通過できなくなります。#ENDは不要です。
0,0,0,1,0,0,0,0,1,0,0,0,
#END
