#HITDATA
#VERSION
1
#POINT
0,0
0,1000
1000,0
1000,1000
300,600
700,400
800,500
700,600
#END
#LINE
0,1,2
5,1,0
1,7,0
7,6,0
6,5,0
2,0,0
0,4,0
4,3,0
3,2,0
#END
#ANSER
3,4,0,1,7,6,5,1,0,2,3,
#QUEST
0,0,1,0,0,0,0,0,0,0,0,
#END
