#HITDATA
#VERSION
1
#POINT
986,500
500,258
500,500
742,500
500,986
500,742
14,500
500,14
258,500
#END
#LINE
1,7,0
1,2,0
1,0,0
0,3,0
3,2,0
3,4,0
4,5,0
5,2,0
5,6,0
6,8,0
8,2,0
8,7,0
8,5,0
3,1,0
#END
#ANSER
2,5,4,3,1,0,3,2,1,7,8,5,6,8,2,
#QUEST
0,0,0,0,0,0,0,0,0,0,0,0,0,0,0,
#END
