#HITDATA
#VERSION
1
#POINT
750,300
550,250
250,500
50,800
0,1000
250,950
500,800
400,600
700,650
600,450
800,450
800,200
600,0
850,0
950,200
#END
#LINE
12,0,0
0,11,0
11,12,0
11,13,0
13,14,0
14,0,0
0,1,0
1,2,0
2,3,0
3,4,0
4,5,0
5,6,0
6,7,2
6,8,0
8,9,2
8,10,0
10,0,0
#END
#ANSER
11,12,0,1,2,3,4,5,6,7,6,8,9,8,10,0,14,13,11,
#QUEST
0,0,0,0,0,0,0,0,0,0,0,0,0,0,0,0,0,0,0,
#END
