#HITDATA
#VERSION
1
#POINT
262,74
414,409
709,529
805,830
805,746
950,1000
699,811
550,700
353,647
230,624
262,799
140,586
262,556
111,527
49,678
78,469
232,469
200,196
49,104
49,44
865,799
985,472
778,553
700,1000
500,800
466,651
593,799
625,717
873,454
867,555
526,460
628,467
#END
#LINE
19,18,0
18,17,0
17,16,0
16,15,0
15,14,0
13,14,0
13,12,0
12,11,0
11,10,0
10,9,0
9,8,0
8,25,0
7,27,0
2,28,0
28,21,0
22,4,0
4,20,0
20,5,0
2,31,0
0,1,1
0,19,0
5,3,0
3,6,0
25,7,0
25,24,0
24,23,0
23,26,0
27,6,0
27,26,0
21,29,0
29,22,0
31,30,0
30,1,0
#END
#ANSER
25,7,27,26,23,24,25,8,9,10,11,12,13,14,15,16,17,18,19,0,1,30,31,2,28,21,29,22,4,20,5,3,6,27,
#QUEST
0,0,0,0,0,1,0,0,0,0,0,0,0,0,0,0,0,0,0,0,0,0,0,0,0,0,0,0,0,0,0,0,0,0,
#END
