#HITDATA
#VERSION
1
#POINT
600,350
0,350
300,50
900,50
900,650
600,950
0,950
300,650
#END
#LINE
1,2,1
2,0,2
0,1,3
1,7,0
7,0,0
0,3,2
2,3,3
0,4,0
4,5,1
5,7,2
7,4,3
7,6,2
5,6,3
#END
#ANSER
2,3,0,2,3,0,1,2,0,1,7,5,6,7,4,5,6,7,4,0,7,5,
#QUEST
0,0,0,0,0,0,1,0,0,1,0,0,0,0,0,0,0,0,0,0,0,0,
#END
