#HITDATA
#VERSION
1
#POINT
14,14
350,14
350,350
14,350
14,650
350,650
350,986
14,986
650,986
986,986
986,650
650,650
650,350
986,350
986,14
650,14
168,832
350,832
650,832
832,832
832,650
832,350
832,168
650,168
350,168
168,168
168,350
168,650
#END
#LINE
0,1,0
1,24,0
24,2,0
2,26,0
26,3,0
3,0,0
25,26,0
26,27,0
27,16,0
16,17,0
17,18,0
18,19,0
19,20,0
20,21,0
21,22,0
22,23,0
23,24,0
24,25,0
2,5,2
5,11,0
11,12,2
12,2,2
12,23,0
23,15,0
15,14,0
14,13,0
13,21,0
21,12,0
11,20,0
20,10,0
10,9,0
8,9,0
8,18,0
18,11,0
5,17,0
17,6,0
6,7,0
7,4,0
4,27,0
27,5,0
#END
#ANSER
5,2,24,1,0,3,26,25,24,23,12,2,26,27,4,7,6,17,18,19,20,10,9,8,18,11,12,21,22,23,15,14,13,21,20,11,12,2,5,27,16,17,5,11,
#QUEST
0,0,0,0,0,0,1,0,0,0,0,0,1,0,0,0,0,0,0,0,0,0,0,0,0,0,0,0,0,0,0,0,0,0,0,0,0,0,0,0,0,0,0,0,
#END
