#HITDATA
#VERSION
1
#POINT
500,150
50,800
950,800
300,800
700,800
700,450
300,450
#END
#LINE
0,6,1
6,1,0
1,3,0
3,4,0
4,2,0
2,5,0
5,0,0
5,6,0
6,3,1
4,5,0
#END
#ANSER
3,1,6,3,4,2,5,0,6,5,4,
#QUEST
0,0,0,0,0,0,0,0,0,0,0,
#END
