#HITDATA
#VERSION
1
#POINT
500,11
112,410
500,410
310,561
310,739
500,887
690,739
690,561
888,410
888,988
112,988
#END
#LINE
0,1,0
1,2,0
2,3,0
3,4,0
4,5,0
5,6,0
6,7,0
7,2,0
2,8,0
8,0,0
8,9,0
9,10,0
10,1,0
#END
#ANSER
1,2,3,4,5,6,7,2,8,9,10,1,0,8,
#QUEST
0,0,0,0,0,0,0,1,0,0,0,0,0,0,
#END
