#HITDATA
#VERSION
1
#POINT
14,986
832,986
832,680
320,680
320,168
14,168
986,14
680,320
168,320
168,14
680,832
986,832
832,832
680,680
320,320
168,168
#END
#LINE
5,0,0
12,11,0
6,11,0
9,6,0
9,15,0
15,8,0
8,14,0
14,7,0
7,13,0
13,10,0
10,12,0
12,1,0
1,0,0
12,2,0
2,13,0
13,3,0
3,14,0
14,4,0
4,15,0
15,5,0
#END
#ANSER
9,6,11,12,1,0,5,15,8,14,3,13,10,12,2,13,7,14,4,15,9,
#QUEST
0,0,0,0,0,0,0,0,0,0,0,0,0,0,0,0,0,0,0,0,0,
#END
