#HITDATA
#VERSION
1
#POINT
500,14
14,500
500,986
986,500
863,863
137,863
137,137
863,137
380,380
620,380
620,620
380,620
#END
#LINE
0,7,0
7,3,0
4,3,0
2,4,0
2,5,0
5,1,0
6,1,0
0,6,0
8,0,1
1,8,1
1,11,1
11,2,1
10,2,1
3,10,1
3,9,1
9,0,1
#END
#ANSER
0,7,3,9,0,6,1,11,2,4,3,10,2,5,1,8,0,
#QUEST
0,0,0,0,0,0,0,0,0,0,0,0,0,0,0,0,0,
#END
