#HITDATA
#VERSION
1
#POINT
14,14
986,14
500,500
14,986
986,986
986,742
742,620
742,380
986,258
14,258
258,380
258,620
14,742
258,742
742,742
742,258
258,258
137,863
863,863
137,137
863,137
#END
#LINE
0,1,0
1,8,0
8,7,0
7,2,0
2,10,0
10,9,0
9,0,0
2,15,0
15,20,0
20,19,0
19,16,0
16,2,0
16,15,0
15,7,0
7,6,0
6,14,0
14,18,0
18,17,0
17,13,0
13,11,0
11,10,0
10,16,0
2,11,0
11,12,0
12,3,0
3,4,0
4,5,0
5,6,0
6,2,0
2,13,0
13,14,0
14,2,0
#END
#ANSER
0,1,8,7,15,20,19,16,15,2,16,10,2,7,6,2,14,6,5,4,3,12,11,13,17,18,14,13,2,11,10,9,0,
#QUEST
0,0,0,0,0,0,0,0,0,0,0,0,0,0,0,0,0,0,0,0,0,0,0,0,0,0,0,0,0,0,0,0,0,
#END
