#HITDATA
#VERSION
1
#POINT
170,830
170,170
336,170
336,830
500,830
500,170
664,170
664,830
830,830
830,170
253,5
581,5
747,995
419,995
#END
#LINE
0,1,0
2,1,0
2,3,1
3,4,0
5,4,1
5,6,0
7,6,1
7,8,0
8,9,1
6,11,0
11,5,0
2,10,0
10,1,0
3,13,0
13,4,0
7,12,0
12,8,0
0,3,0
4,7,0
6,9,0
5,2,0
#END
#ANSER
8,9,6,11,5,4,7,12,8,7,6,5,2,3,4,13,3,0,1,10,2,1,
#QUEST
0,0,0,0,0,0,0,0,0,0,0,0,0,0,0,0,0,0,0,0,0,0,
#END
