#HITDATA
#VERSION
1
#POINT
500,9
9,500
500,991
991,500
904,96
385,385
615,385
615,615
96,96
385,615
385,500
96,904
500,385
615,500
904,904
500,615
#END
#LINE
0,5,0
0,6,0
6,3,0
3,7,0
7,2,0
2,9,0
9,1,0
1,5,0
12,4,0
4,13,0
13,14,0
14,15,0
15,11,0
11,10,0
10,8,0
8,12,0
10,12,0
13,12,0
10,15,0
15,13,0
5,12,0
12,6,0
6,13,0
13,7,0
7,15,0
15,9,0
9,10,0
10,5,0
#END
#ANSER
0,6,13,14,15,11,10,8,12,4,13,12,10,15,13,7,3,6,12,5,1,9,2,7,15,9,10,5,0,
#QUEST
0,0,0,0,0,0,1,0,0,0,0,0,0,0,0,0,0,1,0,0,0,0,0,0,0,1,0,0,0,
#END
