#HITDATA
#VERSION
1
#POINT
30,30
30,970
970,970
970,30
500,30
500,970
500,272
500,728
272,500
728,500
#END
#LINE
0,1,0
1,5,0
5,2,0
2,3,0
3,4,0
4,0,0
4,6,1
7,6,1
7,5,1
6,8,0
8,7,0
7,9,0
9,6,0
#END
#ANSER
5,1,0,4,6,8,7,6,9,7,5,2,3,4,
#QUEST
0,0,0,0,0,0,0,0,0,0,0,0,0,0,
#END
