#HITDATA
#VERSION
1
#POINT
200,0
800,0
500,300
200,600
800,600
500,800
500,1000
1000,800
0,800
#END
#LINE
0,1,1
1,2,0
2,0,0
0,8,0
1,7,0
6,7,0
8,6,0
0,3,1
3,4,0
4,1,0
3,5,0
4,5,0
#END
#ANSER
4,3,5,4,1,2,0,1,7,6,8,0,3,
#QUEST
0,0,0,0,0,0,0,0,0,0,0,0,0,
#END
