#HITDATA
#VERSION
1
#POINT
500,0
200,200
800,200
800,800
200,800
0,500
1000,500
500,500
500,1000
#END
#LINE
0,1,0
1,2,0
2,0,0
1,4,0
4,7,0
7,1,0
2,7,0
7,3,0
3,2,0
2,6,0
6,3,0
3,8,0
8,4,0
4,5,0
5,1,0
#END
#ANSER
1,5,4,1,7,4,8,3,7,2,3,6,2,1,0,2,
#QUEST
0,0,0,1,0,0,0,0,1,0,0,0,0,0,0,0,
#END
