#HITDATA
#VERSION
1
#POINT
349,273
349,727
651,727
651,273
651,500
651,37
963,37
963,500
349,500
37,500
37,963
349,963
#END
#LINE
9,10,0
10,11,0
11,1,0
9,8,0
8,1,0
1,2,0
2,4,0
4,7,0
7,6,0
6,5,0
5,3,0
3,4,0
3,0,0
0,8,0
3,1,0
#END
#ANSER
4,2,1,3,4,7,6,5,3,0,8,1,11,10,9,8,
#QUEST
0,0,0,1,0,0,0,0,0,0,1,0,0,0,0,0,
#END
