#HITDATA
#VERSION
1
#POINT
300,250
700,250
300,500
700,500
300,750
700,750
1000,500
1000,0
700,0
300,1000
0,1000
0,500
#END
#LINE
11,2,0
2,4,0
4,9,0
9,10,0
10,11,0
4,5,2
5,3,0
3,1,0
1,0,2
0,2,0
3,6,0
6,7,0
7,8,0
8,1,0
0,5,0
#END
#ANSER
2,11,10,9,4,5,0,2,4,5,3,1,0,1,8,7,6,3,
#QUEST
0,0,0,0,0,0,0,0,0,0,0,0,0,0,0,0,0,0,
#END
