#HITDATA
#VERSION
1
#POINT
500,0
300,100
100,250
0,400
700,100
900,250
1000,400
650,500
500,550
350,500
200,500
800,500
500,650
500,900
600,1000
700,900
700,750
#END
#LINE
0,1,0
2,1,0
2,3,0
3,10,0
9,10,0
9,8,0
8,7,0
7,11,0
11,6,0
6,5,0
5,4,0
4,0,0
0,9,0
0,7,0
9,12,0
12,7,0
12,8,0
12,13,0
13,14,0
16,15,2
15,14,0
#END
#ANSER
15,16,15,14,13,12,9,8,12,7,11,6,5,4,0,1,2,3,10,9,0,7,8,
#QUEST
0,0,0,0,0,0,0,0,0,0,0,0,0,0,0,0,0,0,0,0,0,0,0,
#END
