#HITDATA
#VERSION
1
#POINT
5,674
154,629
12,590
119,343
336,263
412,76
428,179
722,323
702,412
796,494
950,511
937,597
947,669
770,685
528,773
269,778
326,915
364,820
108,738
287,615
306,456
555,552
410,698
190,475
652,830
473,273
737,797
549,220
662,746
843,554
843,633
574,858
796,768
586,321
654,283
992,384
995,775
212,770
#END
#LINE
2,1,0
0,18,0
0,1,0
2,3,0
3,4,0
4,5,0
5,6,0
19,37,2
37,15,0
19,20,2
19,21,0
21,22,0
22,19,0
15,17,0
17,16,0
16,15,0
15,14,0
13,12,0
12,11,0
11,10,0
10,9,0
9,8,0
8,7,0
4,25,0
25,33,0
14,28,0
28,26,0
28,13,0
28,24,0
24,26,0
26,32,0
26,13,0
4,6,0
24,14,0
33,8,0
7,34,0
13,32,0
34,27,0
24,31,0
31,14,0
27,6,0
6,25,0
25,27,0
27,33,0
33,34,0
34,8,0
10,29,0
29,11,0
11,30,0
30,12,0
29,30,0
9,29,0
30,13,0
9,35,0
35,10,0
36,12,0
36,13,0
37,18,0
#END
#ANSER
13,32,26,13,28,26,24,28,14,24,31,14,15,17,16,15,37,19,20,19,21,22,19,37,18,0,1,2,3,4,5,6,4,25,6,27,25,33,27,34,33,8,34,7,8,9,35,10,9,29,10,11,29,30,11,12,30,13,12,36,13,
#QUEST
0,0,0,0,0,0,0,0,0,0,0,1,0,0,0,0,0,0,0,0,0,0,0,0,0,0,0,0,0,0,0,0,0,0,0,0,0,0,0,0,0,0,0,0,0,0,0,0,0,0,0,0,0,0,0,0,0,0,0,0,0,
#END
