#HITDATA
#VERSION
1
#POINT
380,14
380,380
14,380
14,14
620,14
620,380
986,380
986,14
986,620
620,620
620,986
986,986
380,620
380,986
14,986
14,620
258,258
258,380
258,620
258,742
380,742
620,742
742,742
742,620
742,380
742,258
620,258
380,258
#END
#LINE
3,0,0
0,27,0
16,27,0
27,26,1
26,5,0
5,1,1
1,27,0
16,17,0
17,1,0
3,2,0
2,17,0
18,17,1
18,15,0
15,14,0
14,13,0
13,20,0
20,19,0
19,18,0
18,12,0
12,20,0
1,12,1
12,9,1
21,20,1
9,21,0
21,22,0
22,23,0
23,9,0
21,10,0
10,11,0
11,8,0
8,23,0
24,23,1
24,5,0
26,25,0
25,24,0
24,6,0
6,7,0
7,4,0
4,26,0
9,5,1
#END
#ANSER
27,26,4,7,6,24,25,26,5,1,27,16,17,1,12,9,5,24,23,8,11,10,21,22,23,9,21,20,12,18,19,20,13,14,15,18,17,2,3,0,27,
#QUEST
0,0,0,0,0,1,0,0,0,0,0,0,0,0,0,0,0,0,1,0,0,0,0,0,0,0,0,0,0,0,0,0,0,0,0,0,1,0,0,0,0,
#END
