#HITDATA
#VERSION
1
#POINT
500,0
450,150
600,50
400,50
550,150
300,250
700,250
415,269
585,269
250,400
750,400
200,600
800,600
650,850
400,1000
600,1000
350,850
550,750
450,750
450,850
550,850
385,415
615,415
357,585
643,585
500,200
500,299
500,472
150,750
850,750
500,643
500,788
#END
#LINE
0,1,0
1,2,0
2,3,0
3,4,0
4,0,0
5,1,1
6,4,1
5,7,0
1,25,0
8,6,0
9,7,1
10,8,1
7,26,0
26,8,0
9,21,0
26,21,1
22,10,0
11,21,1
26,22,1
12,22,1
21,27,0
11,23,0
24,12,0
27,22,0
27,23,1
25,4,0
25,7,1
25,8,1
27,24,1
23,30,0
19,16,0
16,14,0
14,15,0
15,13,0
13,20,0
30,24,0
28,23,1
28,18,0
18,31,0
31,17,0
30,17,1
30,18,1
18,19,0
17,20,0
17,29,0
29,24,1
19,20,0
#END
#ANSER
19,18,28,23,11,21,9,7,5,1,2,3,4,0,1,25,7,26,21,27,23,30,18,31,17,29,24,12,22,10,8,6,4,25,8,26,22,27,24,30,17,20,13,15,14,16,19,20,
#QUEST
0,0,0,1,0,0,0,0,0,0,0,0,0,0,0,0,0,0,0,0,0,0,0,0,1,0,0,0,0,0,0,0,0,0,0,0,0,0,0,0,0,0,0,0,0,0,0,0,
#END
