#HITDATA
#VERSION
1
#POINT
451,48
451,348
338,473
338,991
662,991
662,473
549,348
549,48
338,550
662,550
500,550
338,716
662,716
500,716
338,880
662,880
500,880
#END
#LINE
2,8,2
8,11,0
11,14,0
14,3,0
3,4,0
4,15,0
15,12,0
12,9,0
9,5,2
5,6,2
6,7,2
0,7,2
0,1,2
1,2,2
8,10,2
10,9,2
9,13,1
13,8,1
11,10,1
11,16,1
16,12,1
12,10,1
14,16,2
16,15,2
#END
#ANSER
9,5,6,7,0,1,2,8,10,9,13,8,11,10,9,12,15,4,3,14,11,16,14,16,15,16,12,10,8,2,1,0,7,6,5,9,
#QUEST
0,0,0,0,0,0,0,0,0,0,0,0,0,0,0,0,0,1,0,0,0,0,0,0,0,0,0,0,0,0,0,0,0,0,0,0,
#END
