#HITDATA
#VERSION
1
#POINT
952,48
15,985
138,862
862,138
620,380
380,620
380,862
138,620
380,380
620,620
620,138
862,380
680,500
741,443
923,259
741,77
557,259
500,320
320,500
500,680
443,741
259,923
77,741
259,557
#END
#LINE
1,2,0
2,22,0
22,7,0
7,23,0
23,5,0
5,20,0
20,6,0
6,21,0
21,2,0
2,5,1
5,18,0
18,8,0
8,17,0
17,4,0
4,12,0
12,9,0
9,19,0
19,5,0
5,4,0
4,16,0
16,10,0
10,15,0
15,3,0
3,14,0
14,11,0
11,13,0
13,4,0
4,3,0
3,0,0
#END
#ANSER
1,2,21,6,20,5,18,8,17,4,13,11,14,3,15,10,16,4,12,9,19,5,23,7,22,2,5,4,3,0,
#QUEST
0,0,0,0,0,0,0,0,0,0,0,0,0,0,0,0,0,0,0,0,0,0,0,0,0,1,0,0,0,0,
#END
