#HITDATA
#VERSION
1
#POINT
400,50
600,50
600,950
400,950
400,500
600,500
800,300
1000,500
800,700
200,300
0,500
200,700
#END
#LINE
4,9,0
9,10,0
10,11,0
11,4,0
4,5,1
5,6,0
6,7,0
7,8,0
8,5,0
4,0,0
0,1,0
1,5,0
5,2,0
2,3,0
3,4,0
4,1,0
#END
#ANSER
1,0,4,9,10,11,4,5,2,3,4,1,5,6,7,8,5,
#QUEST
0,0,0,0,0,0,0,1,0,0,0,0,0,0,0,0,0,
#END
