#HITDATA
#VERSION
1
#POINT
258,137
742,137
742,500
258,500
258,742
742,742
986,500
986,986
14,986
14,500
137,863
863,863
863,500
863,14
137,14
137,500
500,500
#END
#LINE
3,16,0
2,12,0
12,6,0
6,7,0
7,8,0
8,9,0
9,15,0
15,3,0
3,0,0
0,1,0
1,2,0
2,5,0
5,4,0
4,3,0
15,10,0
10,11,0
11,12,0
12,13,0
13,14,0
14,15,0
8,10,1
10,4,1
11,5,1
7,11,1
4,16,1
5,16,1
16,2,0
#END
#ANSER
8,7,11,10,15,9,8,10,4,5,2,12,11,5,16,3,4,16,2,1,0,3,15,14,13,12,6,7,
#QUEST
0,0,0,1,0,0,0,0,0,0,0,1,0,0,0,0,0,0,0,0,1,0,0,0,0,0,0,0,
#END
