#HITDATA
#VERSION
1
#POINT
262,384
500,14
986,262
986,738
500,986
14,738
14,500
262,616
500,500
500,262
262,140
14,262
#END
#LINE
10,1,0
1,2,1
2,3,1
3,4,1
4,5,1
5,6,0
6,7,0
7,8,1
8,9,0
9,10,1
11,10,0
6,11,1
0,6,0
10,0,0
0,8,0
8,3,0
#END
#ANSER
0,6,11,10,0,8,9,10,1,2,3,4,5,6,7,8,3,
#QUEST
0,0,0,0,0,0,0,0,0,0,0,0,0,0,0,0,0,
#END
