#HITDATA
#VERSION
1
#POINT
500,115
170,115
830,115
5,363
336,363
692,363
995,363
225,527
500,527
802,527
170,664
390,747
610,747
830,664
500,941
#END
#LINE
3,1,0
1,0,0
0,2,0
2,6,0
6,5,0
5,4,0
4,3,0
3,7,0
7,10,0
10,14,0
14,13,0
13,9,0
9,6,0
4,7,0
4,8,0
8,5,0
5,9,0
4,0,0
0,5,0
5,2,0
4,1,0
8,11,0
11,14,0
14,12,0
12,8,0
7,11,0
12,9,0
13,6,0
10,3,0
12,13,0
11,10,0
#END
#ANSER
1,3,10,14,13,6,2,0,1,4,3,7,10,11,14,12,13,9,6,5,9,12,8,11,7,4,8,5,4,0,5,2,
#QUEST
0,0,0,0,0,0,1,0,0,0,0,0,0,1,0,0,0,0,0,0,0,0,0,0,0,1,0,0,0,0,0,0,
#END
