#HITDATA
#VERSION
1
#POINT
0,0
1000,0
1000,1000
0,1000
900,1000
900,100
150,100
150,900
800,900
800,200
300,200
450,500
300,500
300,750
150,500
700,750
700,350
450,350
450,600
600,600
600,500
0,500
#END
#LINE
0,1,0
1,2,0
2,4,0
7,8,0
4,3,0
0,21,0
21,3,0
7,14,0
10,9,0
9,8,0
14,6,0
10,12,0
12,13,0
6,5,0
5,4,0
18,11,0
13,15,0
15,16,0
16,17,0
20,11,1
18,19,0
19,20,0
11,17,0
12,11,1
12,14,1
21,14,1
#END
#ANSER
21,3,4,2,1,0,21,14,7,8,9,10,12,11,18,19,20,11,17,16,15,13,12,14,6,5,4,
#QUEST
0,0,0,0,0,0,0,1,0,0,0,0,0,0,0,0,0,0,0,0,0,0,0,0,0,0,0,
#END
