#HITDATA
#VERSION
1
#POINT
403,403
500,500
597,403
698,500
500,698
302,500
403,597
597,597
698,698
500,900
302,698
798,403
798,597
798,798
998,597
202,403
2,597
202,597
202,798
500,302
698,302
900,302
302,302
100,302
302,100
698,100
#END
#LINE
0,5,0
6,5,0
0,1,0
1,2,0
2,3,0
3,7,0
7,4,0
4,6,0
6,10,0
10,9,0
9,8,0
8,7,0
5,15,0
16,15,1
18,16,1
18,10,0
10,17,0
17,5,0
3,11,0
14,11,1
13,14,1
13,8,0
8,12,0
12,3,0
24,23,1
19,24,1
19,0,0
0,22,0
22,15,0
15,23,0
19,2,0
2,20,0
20,11,0
11,21,0
25,21,1
19,25,1
#END
#ANSER
7,8,9,10,6,4,7,3,12,8,13,14,11,20,2,19,25,21,11,3,2,1,0,19,24,23,15,22,0,5,17,10,18,16,15,5,6,
#QUEST
0,0,0,0,0,0,0,1,0,0,0,0,0,0,0,0,1,0,0,0,0,1,0,0,0,0,0,0,0,0,0,0,0,0,0,0,0,
#END
